<?xml version="1.0" encoding="UTF-8" standalone="no"?>
<!-- Created with Inkscape (http://www.inkscape.org/) -->

<svg
   xmlns:dc="http://purl.org/dc/elements/1.1/"
   xmlns:cc="http://creativecommons.org/ns#"
   xmlns:rdf="http://www.w3.org/1999/02/22-rdf-syntax-ns#"
   xmlns:svg="http://www.w3.org/2000/svg"
   xmlns="http://www.w3.org/2000/svg"
   xmlns:sodipodi="http://sodipodi.sourceforge.net/DTD/sodipodi-0.dtd"
   xmlns:inkscape="http://www.inkscape.org/namespaces/inkscape"
   width="100.00009mm"
   height="95.721779mm"
   viewBox="0 0 100.00009 95.721779"
   version="1.1"
   id="svg8"
   sodipodi:docname="logo.svg"
   inkscape:version="0.92.4 (5da689c313, 2019-01-14)"
   inkscape:export-filename="/home/philtweir/Code/Projects/OurRagingPlanet/orp-backend/docs/logo.png"
   inkscape:export-xdpi="300.29999"
   inkscape:export-ydpi="300.29999">
  <defs
     id="defs2">
    <clipPath
       clipPathUnits="userSpaceOnUse"
       id="clipPath877">
      <path
         style="opacity:1;vector-effect:none;fill:#ff8080;fill-opacity:1;stroke:none;stroke-width:3.10039401;stroke-linecap:butt;stroke-linejoin:miter;stroke-miterlimit:4;stroke-dasharray:none;stroke-dashoffset:0;stroke-opacity:1"
         d="m 155,102.87074 a 50.000001,50.000001 0 0 1 -50,50 50.000001,50.000001 0 0 1 -49.999999,-50 A 50.000001,50.000001 0 0 1 105,52.870743 50.000001,50.000001 0 0 1 155,102.87074 Z"
         id="path879"
         inkscape:connector-curvature="0" />
    </clipPath>
  </defs>
  <sodipodi:namedview
     id="base"
     pagecolor="#ffffff"
     bordercolor="#666666"
     borderopacity="1.0"
     inkscape:pageopacity="0.0"
     inkscape:pageshadow="2"
     inkscape:zoom="0.35"
     inkscape:cx="146.41267"
     inkscape:cy="15.25949"
     inkscape:document-units="mm"
     inkscape:current-layer="layer1"
     showgrid="false"
     fit-margin-top="0"
     fit-margin-left="0"
     fit-margin-right="0"
     fit-margin-bottom="0"
     inkscape:window-width="1920"
     inkscape:window-height="1043"
     inkscape:window-x="0"
     inkscape:window-y="0"
     inkscape:window-maximized="1" />
  <metadata
     id="metadata5">
    <rdf:RDF>
      <cc:Work
         rdf:about="">
        <dc:format>image/svg+xml</dc:format>
        <dc:type
           rdf:resource="http://purl.org/dc/dcmitype/StillImage" />
        <dc:title />
      </cc:Work>
    </rdf:RDF>
  </metadata>
  <g
     inkscape:label="Layer 1"
     inkscape:groupmode="layer"
     id="layer1"
     transform="translate(-54.999744,-57.148965)">
    <path
       style="fill:none;stroke:#b3b3b3;stroke-width:11.03072643;stroke-linecap:butt;stroke-linejoin:round;stroke-miterlimit:4;stroke-dasharray:none;stroke-opacity:1"
       d="m 106.54993,116.03786 c 0,0 -2.98693,5.6575 -5.35906,6.11465 -4.08782,0.7878 -10.604772,-1.39241 -11.272451,-6.58501 -1.14709,-8.92101 8.424613,-18.242292 15.522731,-18.579111 7.04669,-0.334375 15.66671,8.013751 16.44675,16.932851 0.912,10.42798 -11.63716,15.31791 -15.33797,24.6938 -2.34751,5.94733 -4.06549,19.28464 -4.06549,19.28464"
       id="path30"
       inkscape:connector-curvature="0"
       sodipodi:nodetypes="caaaaac"
       clip-path="url(#clipPath877)" />
    <path
       style="opacity:1;vector-effect:none;fill:#b3b3b3;fill-opacity:1;stroke:none;stroke-width:11.7180233;stroke-linecap:butt;stroke-linejoin:miter;stroke-miterlimit:4;stroke-dasharray:none;stroke-dashoffset:0;stroke-opacity:1"
       d="m 396.84961,215.99609 c -104.36892,-1e-4 -188.97666,84.60765 -188.97656,188.97657 0.0769,53.70872 23.00367,104.84759 63.05078,140.63672 l 32.00511,-119.44776 31.09059,-116.03467 h 62.83008 62.83008 l 63.08789,235.45313 c 40.04241,-35.78091 62.97138,-86.90769 63.05859,-140.60742 10e-5,-104.36892 -84.60764,-188.97667 -188.97656,-188.97657 z"
       transform="scale(0.26458333)"
       id="path10"
       inkscape:connector-curvature="0"
       sodipodi:nodetypes="cccccccccc" />
  </g>
</svg>
